{
  "name": "qsiprep-session",
  "description": "Runs qsiprep with a session mounted",
  "label": "qsiprep-session",
  "version": "1.0",
  "schema-version": "1.0",
  "type": "docker",
  "command-line": " run.sh ",
  "override-entrypoint": true,
  "mounts": [
      {
          "name": "t1",
          "writable": "false",
          "path": "/t1"
      },
      {
        "name": "dwi",
        "writable": "false",
        "path": "/dwi"
      },
      {
          "name": "out",
          "writable": "true",
          "path": "/output"
      }
  ],
  "inputs": [],
  "outputs": [
      {
          "name": "output",
          "description": "The command's stdout",
          "mount": "out",
          "required": true
      }
  ],
  "xnat": [
      {
          "name": "qsiprep-session",
          "description": "Run qsiprep with a session mounted",
          "label": "qsiprep-session",
          "contexts": ["xnat:imageSessionData"],
          "external-inputs": [
            {
                "name": "session",
                "label": null,
                "description": "Input session",
                "type": "Session",
                "matcher": null,
                "default-value": null,
                "required": true,
                "replacement-key": null,
                "sensitive": null,
                "provides-value-for-command-input": null,
                "provides-files-for-command-mount": null,
                "via-setup-command": null,
                "user-settable": null,
                "load-children": false
              }
          ],
          "derived-inputs": [
            {
                "name": "t1",
                "label": null,
                "description": "T1 scan to check within session",
                "type": "Scan",
                "matcher": "@.scan-type == 'MPRAGE' || @.scan-type == 'SPGR' || @.scan-type == 'T1w'",
                "default-value": null,
                "required": true,
                "replacement-key": null,
                "sensitive": false,
                "provides-value-for-command-input": null,
                "provides-files-for-command-mount": "t1",
                "user-settable": false,
                "load-children": true,
                "derived-from-wrapper-input": "session",
                "derived-from-xnat-object-property": null,
                "via-setup-command": null,
                "multiple": false,
                "parser": null
              },
              {
                "name": "dwi",
                "label": null,
                "description": "DWI scan to check within session",
                "type": "Scan",
                "matcher": "@.scan-type == 'dwi'",
                "default-value": null,
                "required": true,
                "replacement-key": null,
                "sensitive": false,
                "provides-value-for-command-input": null,
                "provides-files-for-command-mount": "dwi",
                "user-settable": false,
                "load-children": true,
                "derived-from-wrapper-input": "session",
                "derived-from-xnat-object-property": null,
                "via-setup-command": null,
                "multiple": false,
                "parser": null
              }
          ],
          "output-handlers": [
              {
                  "name": "output",
                  "accepts-command-output": "output",
                  "as-a-child-of-wrapper-input": "dwi",
                  "type": "Resource",
                  "label": "QSIPREP"
              }
          ]
      }
  ]
}
