{
    "name": "sienax-assessor",
    "description": "Collects sienax volumetry for scan and uploads as assessor",
    "version": "1.0",
    "schema-version": "1.0",
    "image": "registry.bnac.net/crania/sienax:latest",
    "type": "docker",
    "command-line": " python /bin/generate_assessor_xml.py 'http://xnat.cbi.bnac.net:8080' $XNAT_USER $XNAT_PASS #PROJECT# #SESSION_ID# #SESSION_LABEL# #SCAN_ID# ",
    "mounts": [
      {
        "name": "input",
        "writable": false,
        "path": "/input"
      },
      {
        "name": "out",
        "writable": true,
        "path": "/output"
      }
    ],
    "environment-variables": {},
    "ports": {},
    "inputs": [
      {
        "name": "PROJECT",
        "label": null,
        "description": null,
        "type": "string",
        "matcher": null,
        "default-value": null,
        "required": true,
        "replacement-key": null,
        "sensitive": null,
        "command-line-flag": null,
        "command-line-separator": null,
        "true-value": null,
        "false-value": null,
        "select-values": [],
        "multiple-delimiter": null
      },
      {
        "name": "SESSION_ID",
        "label": null,
        "description": null,
        "type": "string",
        "matcher": null,
        "default-value": null,
        "required": true,
        "replacement-key": null,
        "sensitive": null,
        "command-line-flag": null,
        "command-line-separator": null,
        "true-value": null,
        "false-value": null,
        "select-values": [],
        "multiple-delimiter": null
      },
      {
        "name": "SESSION_LABEL",
        "label": null,
        "description": null,
        "type": "string",
        "matcher": null,
        "default-value": null,
        "required": true,
        "replacement-key": null,
        "sensitive": null,
        "command-line-flag": null,
        "command-line-separator": null,
        "true-value": null,
        "false-value": null,
        "select-values": [],
        "multiple-delimiter": null
      },
      {
        "name": "SCAN_ID",
        "label": null,
        "description": null,
        "type": "string",
        "matcher": null,
        "default-value": null,
        "required": true,
        "replacement-key": null,
        "sensitive": null,
        "command-line-flag": null,
        "command-line-separator": null,
        "true-value": null,
        "false-value": null,
        "select-values": [],
        "multiple-delimiter": null
      }
    ],
    "outputs": [
      {
        "name": "xml",
        "description": "SIENAX assessor (XML format)",
        "required": true,
        "mount": "out",
        "path": "sienax.xml",
        "glob": null
      }
    ],
    "xnat": [
      {
        "name": "sienax-assessor",
        "label": "sienax-assessor",
        "description": "Collects sienax volumetry for scan and uploads as assessor",
        "contexts": [
          "xnat:imageSessionData"
        ],
        "external-inputs": [
          {
            "name": "session",
            "label": null,
            "description": "Input session",
            "type": "Session",
            "matcher": null,
            "default-value": null,
            "required": true,
            "replacement-key": null,
            "sensitive": null,
            "provides-value-for-command-input": null,
            "provides-files-for-command-mount": null,
            "via-setup-command": null,
            "user-settable": null,
            "load-children": true
          }
        ],
        "derived-inputs": [
          {
            "name": "project",
            "label": null,
            "description": null,
            "type": "string",
            "matcher": null,
            "default-value": null,
            "required": true,
            "replacement-key": null,
            "sensitive": null,
            "provides-value-for-command-input": "PROJECT",
            "provides-files-for-command-mount": null,
            "user-settable": false,
            "load-children": true,
            "derived-from-wrapper-input": "session",
            "derived-from-xnat-object-property": "project-id",
            "via-setup-command": null,
            "multiple": false,
            "parser": null
          },
          {
            "name": "session-id",
            "label": null,
            "description": null,
            "type": "string",
            "matcher": null,
            "default-value": null,
            "required": true,
            "replacement-key": null,
            "sensitive": null,
            "provides-value-for-command-input": "SESSION_ID",
            "provides-files-for-command-mount": null,
            "user-settable": false,
            "load-children": true,
            "derived-from-wrapper-input": "session",
            "derived-from-xnat-object-property": "id",
            "via-setup-command": null,
            "multiple": false,
            "parser": null
          },
          {
            "name": "session-label",
            "label": null,
            "description": null,
            "type": "string",
            "matcher": null,
            "default-value": null,
            "required": true,
            "replacement-key": null,
            "sensitive": null,
            "provides-value-for-command-input": "SESSION_LABEL",
            "provides-files-for-command-mount": null,
            "user-settable": false,
            "load-children": true,
            "derived-from-wrapper-input": "session",
            "derived-from-xnat-object-property": "label",
            "via-setup-command": null,
            "multiple": false,
            "parser": null
          },
          {
            "name": "scan",
            "label": null,
            "description": null,
            "type": "Scan",
            "matcher": "@.modality =~ /(?!RT).*/ && 'DICOM' in @.resources[*].label",
            "default-value": null,
            "required": true,
            "replacement-key": null,
            "sensitive": null,
            "provides-value-for-command-input": null,
            "provides-files-for-command-mount": "input",
            "user-settable": null,
            "load-children": true,
            "derived-from-wrapper-input": "session",
            "derived-from-xnat-object-property": null,
            "via-setup-command": null,
            "multiple": false,
            "parser": null
          },
          {
            "name": "scan-id",
            "label": null,
            "description": null,
            "type": "string",
            "matcher": null,
            "default-value": null,
            "required": true,
            "replacement-key": null,
            "sensitive": null,
            "provides-value-for-command-input": "SCAN_ID",
            "provides-files-for-command-mount": null,
            "user-settable": false,
            "load-children": true,
            "derived-from-wrapper-input": "scan",
            "derived-from-xnat-object-property": "id",
            "via-setup-command": null,
            "multiple": false,
            "parser": null
          }
        ],
        "output-handlers": [
          {
            "name": "assessor",
            "accepts-command-output": "xml",
            "via-wrapup-command": null,
            "as-a-child-of": "session",
            "type": "Assessor",
            "label": null,
            "format": null,
            "description": null,
            "content": null,
            "tags": []
          }
        ]
      }
    ],
    "container-labels": {},
    "generic-resources": {},
    "ulimits": {}
  }