{
    "name": "mriqc-project",
    "label": "mriqc-project",
    "description": "MRIQC with a project mounted",
    "version": "1.0",
    "schema-version": "1.0",
    "image": "registry.bnac.net/crania/mriqc:latest",
    "type": "docker",
    "command-line": "/bin/run_project.sh",
    "override-entrypoint": true,
    "mounts": [
      {
        "name": "output",
        "writable": true,
        "path": "/output"
      },
      {
        "name": "input",
        "writable": false,
        "path": "/input"
      }
    ],
    "environment-variables": {},
    "ports": {},
    "inputs": [],
    "outputs": [
      {
        "name": "output",
        "description": null,
        "required": true,
        "mount": "output",
        "path": null,
        "glob": null
      }
    ],
    "xnat": [
      {
        "name": "mriqc-project",
        "label": "mriqc-project",
        "description": "MRIQC with a project mounted",
        "contexts": [
          "xnat:projectData"
        ],
        "external-inputs": [
          {
            "name": "project",
            "label": null,
            "description": "Input project",
            "type": "Project",
            "matcher": null,
            "default-value": null,
            "required": true,
            "replacement-key": null,
            "sensitive": null,
            "provides-value-for-command-input": null,
            "provides-files-for-command-mount": "input",
            "via-setup-command": null,
            "user-settable": null,
            "load-children": false
          }
        ],
        "derived-inputs": [],
        "output-handlers": [
          {
            "name": "output",
            "accepts-command-output": "output",
            "via-wrapup-command": null,
            "as-a-child-of": "project",
            "type": "Resource",
            "label": "MRIQC",
            "format": null,
            "description": null,
            "content": null,
            "tags": []
          }
        ]
      }
    ],
    "container-labels": {},
    "generic-resources": {},
    "ulimits": {}
  }